{
  "displayName": "Recommendation Service Dashboard",
  "gridLayout": {
    "columns": "2",
    "widgets": [
      {
        "title": "CPU Limit Utilization - Recommendation Service",
        "xyChart": {
          "dataSets": [
            {
              "timeSeriesQuery": {
                "timeSeriesFilter": {
                  "filter": "metric.type=\"kubernetes.io/container/cpu/limit_utilization\" resource.type=\"k8s_container\" resource.label.\"cluster_name\"=\"cluster-sre\" metadata.user_labels.\"app\"=\"recommendationservice\" resource.label.\"container_name\"=\"server\"",
                  "aggregation": {
                    "perSeriesAligner": "ALIGN_MEAN"
                  }
                },
                "unitOverride": "1"
              },
              "plotType": "LINE",
              "minAlignmentPeriod": "60s"
            }
          ],
          "yAxis": {
            "label": "y1Axis",
            "scale": "LINEAR"
          },
          "chartOptions": {
            "mode": "COLOR"
          }
        }
      },
      {
        "title": "Server Request Count - Recommendation Service",
        "xyChart": {
          "dataSets": [
            {
              "timeSeriesQuery": {
                "timeSeriesFilter": {
                  "filter": "metric.type=\"istio.io/service/server/request_count\" resource.type=\"k8s_container\" resource.label.\"cluster_name\"=\"cluster-sre\" metadata.user_labels.\"app\"=\"recommendationservice\"",
                  "aggregation": {
                    "perSeriesAligner": "ALIGN_RATE"
                  }
                },
                "unitOverride": "1"
              },
              "plotType": "LINE",
              "minAlignmentPeriod": "60s"
            }
          ],
          "yAxis": {
            "label": "y1Axis",
            "scale": "LINEAR"
          },
          "chartOptions": {
            "mode": "COLOR"
          }
        }
      },
      {
        "title": "RecommendationService/ListRecommendations Calls OK Status",
        "xyChart": {
          "dataSets": [
            {
              "timeSeriesQuery": {
                "timeSeriesFilter": {
                  "filter": "metric.type=\"custom.googleapis.com/opencensus/grpc.io/client/completed_rpcs\" metric.label.\"grpc_client_method\"=\"hipstershop.RecommendationService/ListRecommendations\" metric.label.\"grpc_client_status\"=\"OK\"",
                  "aggregation": {
                    "perSeriesAligner": "ALIGN_RATE"
                  }
                },
                "unitOverride": "1"
              },
              "plotType": "LINE",
              "minAlignmentPeriod": "60s"
            }
          ],
          "yAxis": {
            "label": "y1Axis",
            "scale": "LINEAR"
          },
          "chartOptions": {
            "mode": "COLOR"
          }
        }
      },
      {
        "title": "RecommendationService/ListRecommendations Calls Errors",
        "xyChart": {
          "dataSets": [
            {
              "timeSeriesQuery": {
                "timeSeriesFilter": {
                  "filter": "metric.type=\"custom.googleapis.com/opencensus/grpc.io/client/completed_rpcs\" metric.label.\"grpc_client_method\"=\"hipstershop.RecommendationService/ListRecommendations\" metric.label.\"grpc_client_status\"!=\"OK\"",
                  "aggregation": {
                    "perSeriesAligner": "ALIGN_RATE"
                  }
                },
                "unitOverride": "1"
              },
              "plotType": "LINE",
              "minAlignmentPeriod": "60s"
            }
          ],
          "yAxis": {
            "label": "y1Axis",
            "scale": "LINEAR"
          },
          "chartOptions": {
            "mode": "COLOR"
          }
        }
      },
      {
        "title": "Server Response Latencies, 99th Percentile - Recommendation Service",
        "xyChart": {
          "dataSets": [
            {
              "timeSeriesQuery": {
                "timeSeriesFilter": {
                  "filter": "metric.type=\"istio.io/service/server/response_latencies\" resource.type=\"k8s_container\" resource.label.\"cluster_name\"=\"cluster-sre\" metadata.user_labels.\"app\"=\"recommendationservice\"",
                  "aggregation": {
                    "perSeriesAligner": "ALIGN_PERCENTILE_99"
                  }
                },
                "unitOverride": "ms"
              },
              "plotType": "LINE",
              "minAlignmentPeriod": "60s"
            }
          ],
          "yAxis": {
            "label": "y1Axis",
            "scale": "LINEAR"
          },
          "chartOptions": {
            "mode": "COLOR"
          }
        }
      }
    ]
  }
}
